<?xml version="1.0" encoding="utf-8"?>
<!-- Generator: Adobe Illustrator 24.1.1, SVG Export Plug-In . SVG Version: 6.00 Build 0)  -->
<svg version="1.1" id="Layer_1" xmlns="http://www.w3.org/2000/svg" xmlns:xlink="http://www.w3.org/1999/xlink" x="0px" y="0px"
	 viewBox="0 0 500 500" style="enable-background:new 0 0 500 500;" xml:space="preserve">
<style type="text/css">
	.st0{fill:#FFF323;}
	.st1{fill:#FFCA03;}
	.st2{fill:#1C6DD0;}
</style>
<g>
	<circle class="st0" cx="249.72" cy="318.61" r="143.89"/>
	<circle class="st1" cx="249.72" cy="318.61" r="114.52"/>
	<circle class="st0" cx="249.72" cy="318.61" r="85.16"/>
	<g>
		<path class="st2" d="M331.38,208.28l-22.59,8.98c-37.76,15.01-79.82,15.01-117.58,0l-22.59-8.98c-4.03-1.6-6.67-5.5-6.67-9.83
			V91.36h176.11v107.09C338.05,202.78,335.41,206.68,331.38,208.28z"/>
		<polygon class="st1" points="368.16,85.97 250,47.93 131.84,85.97 99.32,85.97 99.32,96.44 250,144.94 400.68,96.44 400.68,85.97 
					"/>
		<path class="st2" d="M249.76,37.54L99.87,85.21c-0.74,0.23-0.74,1.27,0,1.51l149.89,47.68c0.16,0.05,0.32,0.05,0.48,0
			l149.89-47.68c0.74-0.23,0.74-1.27,0-1.51L250.24,37.54C250.08,37.49,249.92,37.49,249.76,37.54z"/>
		<ellipse class="st1" cx="250" cy="85.97" rx="25.69" ry="9.63"/>
		<g>
			
				<rect x="130.25" y="88.07" transform="matrix(0.9962 -0.0876 0.0876 0.9962 -7.2567 17.0099)" class="st1" width="119.98" height="6.28"/>
		</g>
		<g>
			<polygon class="st1" points="133.62,193.59 127.34,193.59 127.34,93.61 134.18,92.98 			"/>
		</g>
		<path class="st1" d="M147.48,228.51h-33.99l1.57-30c0-8.17,6.63-14.8,14.8-14.8h1.24c8.17,0,14.8,6.63,14.8,14.8L147.48,228.51z"
			/>
	</g>
	<g>
		<polygon class="st2" points="273.57,295.33 261.65,274.68 249.73,254.03 237.8,274.68 225.88,295.33 237.03,295.33 237.03,341.15 
			262.42,341.15 262.42,295.33 		"/>
		<g>
			<polygon class="st2" points="304.79,338.92 296.32,324.27 287.87,309.62 279.4,324.27 270.94,338.92 278.86,338.92 
				278.86,371.44 296.87,371.44 296.87,338.92 			"/>
			<polygon class="st2" points="228.51,338.92 220.04,324.27 211.59,309.62 203.12,324.27 194.66,338.92 202.58,338.92 
				202.58,371.44 220.59,371.44 220.59,338.92 			"/>
		</g>
	</g>
</g>
</svg>
